{
  "name": "v3eoum-qtm26g",
  "hash": "Vz64yac3Bhw2eWSrSd0GwDbaEmWBtKAAmf2Wo1+javA=",
  "description": "Default Lambda@Edge for Next CloudFront distribution",
  "memory": 512,
  "timeout": 10,
  "code": "C:\\Users\\luisj\\Desktop\\hellobuild\\pruebas\\test-amplify2\\.serverless_nextjs\\default-lambda",
  "shims": [],
  "handler": "index.handler",
  "runtime": "nodejs12.x",
  "env": {},
  "role": {
    "arn": "arn:aws:iam::054747773773:role/v3eoum-eypm395"
  },
  "arn": "arn:aws:lambda:us-east-1:054747773773:function:v3eoum-qtm26g",
  "region": "us-east-1"
}