{
  "name": "v3eoum-gzjom3s",
  "arn": "arn:aws:iam::054747773773:role/v3eoum-gzjom3s",
  "service": [
    "lambda.amazonaws.com",
    "edgelambda.amazonaws.com"
  ],
  "policy": {
    "Version": "2012-10-17",
    "Statement": [
      {
        "Effect": "Allow",
        "Resource": "*",
        "Action": [
          "logs:CreateLogGroup",
          "logs:CreateLogStream",
          "logs:PutLogEvents"
        ]
      },
      {
        "Effect": "Allow",
        "Resource": "arn:aws:s3:::v3eoum-xh2rsfa/*",
        "Action": [
          "s3:GetObject",
          "s3:PutObject"
        ]
      }
    ]
  },
  "region": "us-east-1"
}